Geolocalizar Dados No Brasil • milton
…
Assumamos que representam o endereço de pacientes cujas condições estão apresentadas na tabela abaixo.

set.seed(123)
df_pacientes <- df_ceps %>% 
  mutate(
    id = seq_along(cep),
    condicao = sample(c(0, 1), length(cep), replace = TRUE)
  )

df_pacientes
#> # A tibble: 39 x 3
#>    cep         id condicao
#>    <chr>    <int>    <dbl>
#>  1 01215010     1        0
#>  2 01508010     2        0
#>  3 01519000     3        0
#>  4 01526010     4        1
#>  5 02180080     5        0
#>  6 02849170     6        1
#>  7 03347070     7        1
#>  8 03380150     8        1
#>  9 03590080     9        0
#> 10 03737230    10        0
#> # ... with 29 more rows
…
Ler dados do Índice Paulista de Vulnerabilidade Social (IPVS).

ipvs <- ler_ipvs() %>% 
  select(setor = codigo_do_setor_censitario, 
         idade_media_setor = idade_media_das_pessoas_responsaveis, 
         p_renda_meio_sm_setor =  proporcao_de_domicilios_particulares_com_rendimento_nominal_mensal_de_ate_1_2_s_m,
         p_alfabetizadas_setor = proporcao_de_pessoas_responsaveis_alfabetizadas)

Relacionar com dados dos pacientes

paciente_ipvs <- setor_paciente %>% 
  left_join(ipvs, by = "setor")
paciente_ipvs
#> # A tibble: 39 x 10
#>    cep         id condicao endereco       ponto      idx setor  idade_media_set~
#>    <chr>    <int>    <dbl> <chr>          <list>   <int> <chr>             <dbl>
#>  1 01215010     1        0 Rua Helvétia   <POINT ~ 13923 35503~             41.7
#>  2 01508010     2        0 Rua Taguá      <POINT ~ 10240 35503~             44.3
#>  3 01519000     3        0 Rua do Lavapés <POINT ~ 10223 35503~             37.6
#>  4 01526010     4        1 Rua Tenente O~ <POINT ~ 10167 35503~             48.4
#>  5 02180080     5        0 Rua Soldado M~ <POINT ~ 17418 35503~             50.0
#>  6 02849170     6        1 Rua Bernardo ~ <POINT ~  1001 35503~             48.3
#>  7 03347070     7        1 Rua Maestro A~ <POINT ~   107 35503~             56.0
#>  8 03380150     8        1 Rua Cruzeiro ~ <POINT ~ 16920 35503~             48.6
#>  9 03590080     9        0 Rua Padre Man~ <POINT ~   536 35503~             49.4
#> 10 03737230    10        0 Rua Conceição~ <POINT ~    NA <NA>               NA  
#> # ... with 29 more rows, and 2 more variables: p_renda_meio_sm_setor <dbl>,
#> #   p_alfabetizadas_setor <dbl>
…
