…
Assumamos que representam o endereço de pacientes cujas condições estão
apresentadas na tabela abaixo.

``` r
set.seed(123)
df_pacientes <- df_ceps %>% 
  mutate(
    id = seq_along(ceps),
    condicao = sample(c(0, 1), length(ceps), replace = TRUE)
  )

df_pacientes
#> # A tibble: 39 x 3
#>    ceps        id condicao
#>    <chr>    <int>    <dbl>
#>  1 01215010     1        0
#>  2 01508010     2        0
#>  3 01519000     3        0
#>  4 01526010     4        1
#>  5 02180080     5        0
#>  6 02849170     6        1
#>  7 03347070     7        1
#>  8 03380150     8        1
#>  9 03590080     9        0
#> 10 03737230    10        0
#> # ... with 29 more rows
```
…
### 1. Georreferenciamento dos pacientes

``` r
geo_pacientes <- df_pacientes %>% 
  mutate(endereco = cep(ceps),
         ponto = get_addr(endereco))
geo_pacientes
#> # A tibble: 39 x 5
#>    ceps        id condicao endereco                                                         ponto
#>    <chr>    <int>    <dbl> <chr>                                                      <POINT [°]>
#>  1 01215010     1        0 Rua Helvétia, São Paulo                           (-46.64122 -23.5331)
#>  2 01508010     2        0 Rua Taguá, São Paulo                             (-46.63652 -23.56167)
#>  3 01519000     3        0 Rua do Lavapés, São Paulo                        (-46.62748 -23.56164)
#>  4 01526010     4        1 Rua Tenente Otávio Gomes, São Paulo              (-46.63209 -23.56342)
#>  5 02180080     5        0 Rua Soldado Manasses de Aguiar Barros, São Paulo (-46.56587 -23.51827)
#>  6 02849170     6        1 Rua Bernardo Rincon, São Paulo                   (-46.68629 -23.46706)
#>  7 03347070     7        1 Rua Maestro Artur Elias Kauffmann, São Paulo      (-46.5665 -23.56242)
#>  8 03380150     8        1 Rua Cruzeiro dos Peixotos, São Paulo             (-46.53379 -23.57575)
#>  9 03590080     9        0 Rua Padre Manuel Barreto, São Paulo              (-46.48273 -23.54557)
#> 10 03737230    10        0 Rua Conceição do Rio Verde, São Paulo            (-46.50943 -23.51041)
#> # ... with 29 more rows
```

### 2. Identificação do setor censitário em que os pacientes estão localizados

``` r
setor_paciente <- geo_pacientes %>% 
  mutate(idx = map_int(ponto, geopart, setores),
         setor = setores$code_tract[idx])
setor_paciente
#> # A tibble: 39 x 7
#>    ceps        id condicao endereco                                                         ponto   idx setor          
#>    <chr>    <int>    <dbl> <chr>                                                      <POINT [°]> <int> <chr>          
#>  1 01215010     1        0 Rua Helvétia, São Paulo                           (-46.64122 -23.5331) 13923 355030869000101
#>  2 01508010     2        0 Rua Taguá, São Paulo                             (-46.63652 -23.56167) 10240 355030849000088
#>  3 01519000     3        0 Rua do Lavapés, São Paulo                        (-46.62748 -23.56164) 10223 355030849000071
#>  4 01526010     4        1 Rua Tenente Otávio Gomes, São Paulo              (-46.63209 -23.56342) 10167 355030849000015
#>  5 02180080     5        0 Rua Soldado Manasses de Aguiar Barros, São Paulo (-46.56587 -23.51827) 17418 355030889000047
#>  6 02849170     6        1 Rua Bernardo Rincon, São Paulo                   (-46.68629 -23.46706)  1001 355030811000002
#>  7 03347070     7        1 Rua Maestro Artur Elias Kauffmann, São Paulo      (-46.5665 -23.56242)   107 355030801000064
#>  8 03380150     8        1 Rua Cruzeiro dos Peixotos, São Paulo             (-46.53379 -23.57575) 16920 355030885000057
#>  9 03590080     9        0 Rua Padre Manuel Barreto, São Paulo              (-46.48273 -23.54557)   536 355030805000052
#> 10 03737230    10        0 Rua Conceição do Rio Verde, São Paulo            (-46.50943 -23.51041) 12705 355030864000109
#> # ... with 29 more rows
```
…
